%YAML 1.1
%TAG !u! tag:unity3d.com,2011:
--- !u!74 &7400000
AnimationClip:
  m_ObjectHideFlags: 0
  m_PrefabParentObject: {fileID: 0}
  m_PrefabInternal: {fileID: 0}
  m_Name: SD_E_sequence Plan_Level
  serializedVersion: 6
  m_Legacy: 0
  m_Compressed: 0
  m_UseHighQualityCurve: 1
  m_RotationCurves: []
  m_CompressedRotationCurves: []
  m_EulerCurves: []
  m_PositionCurves: []
  m_ScaleCurves: []
  m_FloatCurves: []
  m_PPtrCurves:
  - curve:
    - time: 0.06666667
      value: {fileID: 21300286, guid: 770e0bd966a7fa6438527296aa0db38c, type: 3}
    - time: 0.13333334
      value: {fileID: 21300288, guid: 770e0bd966a7fa6438527296aa0db38c, type: 3}
    - time: 0.2
      value: {fileID: 21300290, guid: 770e0bd966a7fa6438527296aa0db38c, type: 3}
    - time: 0.26666668
      value: {fileID: 21300292, guid: 770e0bd966a7fa6438527296aa0db38c, type: 3}
    - time: 0.33333334
      value: {fileID: 21300294, guid: 770e0bd966a7fa6438527296aa0db38c, type: 3}
    - time: 0.4
      value: {fileID: 21300296, guid: 770e0bd966a7fa6438527296aa0db38c, type: 3}
    - time: 0.46666667
      value: {fileID: 21300298, guid: 770e0bd966a7fa6438527296aa0db38c, type: 3}
    - time: 0.53333336
      value: {fileID: 21300300, guid: 770e0bd966a7fa6438527296aa0db38c, type: 3}
    - time: 0.6
      value: {fileID: 21300302, guid: 770e0bd966a7fa6438527296aa0db38c, type: 3}
    - time: 0.6666667
      value: {fileID: 21300304, guid: 770e0bd966a7fa6438527296aa0db38c, type: 3}
    - time: 0.73333335
      value: {fileID: 21300306, guid: 770e0bd966a7fa6438527296aa0db38c, type: 3}
    - time: 0.8
      value: {fileID: 21300308, guid: 770e0bd966a7fa6438527296aa0db38c, type: 3}
    - time: 0.8666667
      value: {fileID: 21300310, guid: 770e0bd966a7fa6438527296aa0db38c, type: 3}
    - time: 0.93333334
      value: {fileID: 21300312, guid: 770e0bd966a7fa6438527296aa0db38c, type: 3}
    - time: 1
      value: {fileID: 21300314, guid: 770e0bd966a7fa6438527296aa0db38c, type: 3}
    - time: 1.0666667
      value: {fileID: 21300316, guid: 770e0bd966a7fa6438527296aa0db38c, type: 3}
    - time: 1.1333333
      value: {fileID: 21300318, guid: 770e0bd966a7fa6438527296aa0db38c, type: 3}
    - time: 1.2
      value: {fileID: 21300320, guid: 770e0bd966a7fa6438527296aa0db38c, type: 3}
    - time: 1.2666667
      value: {fileID: 21300322, guid: 770e0bd966a7fa6438527296aa0db38c, type: 3}
    - time: 1.3333334
      value: {fileID: 21300324, guid: 770e0bd966a7fa6438527296aa0db38c, type: 3}
    - time: 1.4
      value: {fileID: 21300326, guid: 770e0bd966a7fa6438527296aa0db38c, type: 3}
    - time: 1.4666667
      value: {fileID: 21300328, guid: 770e0bd966a7fa6438527296aa0db38c, type: 3}
    - time: 1.5333333
      value: {fileID: 21300330, guid: 770e0bd966a7fa6438527296aa0db38c, type: 3}
    - time: 1.6
      value: {fileID: 21300332, guid: 770e0bd966a7fa6438527296aa0db38c, type: 3}
    - time: 1.6666666
      value: {fileID: 21300334, guid: 770e0bd966a7fa6438527296aa0db38c, type: 3}
    - time: 1.7333333
      value: {fileID: 21300336, guid: 770e0bd966a7fa6438527296aa0db38c, type: 3}
    - time: 1.8
      value: {fileID: 21300338, guid: 770e0bd966a7fa6438527296aa0db38c, type: 3}
    - time: 1.8666667
      value: {fileID: 21300340, guid: 770e0bd966a7fa6438527296aa0db38c, type: 3}
    - time: 1.9333333
      value: {fileID: 21300342, guid: 770e0bd966a7fa6438527296aa0db38c, type: 3}
    - time: 2
      value: {fileID: 21300344, guid: 770e0bd966a7fa6438527296aa0db38c, type: 3}
    - time: 2.0666666
      value: {fileID: 21300346, guid: 770e0bd966a7fa6438527296aa0db38c, type: 3}
    - time: 2.1333334
      value: {fileID: 21300348, guid: 770e0bd966a7fa6438527296aa0db38c, type: 3}
    - time: 2.2
      value: {fileID: 21300350, guid: 770e0bd966a7fa6438527296aa0db38c, type: 3}
    attribute: m_Sprite
    path: 
    classID: 212
    script: {fileID: 0}
  m_SampleRate: 15
  m_WrapMode: 0
  m_Bounds:
    m_Center: {x: 0, y: 0, z: 0}
    m_Extent: {x: 0, y: 0, z: 0}
  m_ClipBindingConstant:
    genericBindings:
    - path: 0
      attribute: 0
      script: {fileID: 0}
      classID: 212
      customType: 23
      isPPtrCurve: 1
    pptrCurveMapping:
    - {fileID: 21300286, guid: 770e0bd966a7fa6438527296aa0db38c, type: 3}
    - {fileID: 21300288, guid: 770e0bd966a7fa6438527296aa0db38c, type: 3}
    - {fileID: 21300290, guid: 770e0bd966a7fa6438527296aa0db38c, type: 3}
    - {fileID: 21300292, guid: 770e0bd966a7fa6438527296aa0db38c, type: 3}
    - {fileID: 21300294, guid: 770e0bd966a7fa6438527296aa0db38c, type: 3}
    - {fileID: 21300296, guid: 770e0bd966a7fa6438527296aa0db38c, type: 3}
    - {fileID: 21300298, guid: 770e0bd966a7fa6438527296aa0db38c, type: 3}
    - {fileID: 21300300, guid: 770e0bd966a7fa6438527296aa0db38c, type: 3}
    - {fileID: 21300302, guid: 770e0bd966a7fa6438527296aa0db38c, type: 3}
    - {fileID: 21300304, guid: 770e0bd966a7fa6438527296aa0db38c, type: 3}
    - {fileID: 21300306, guid: 770e0bd966a7fa6438527296aa0db38c, type: 3}
    - {fileID: 21300308, guid: 770e0bd966a7fa6438527296aa0db38c, type: 3}
    - {fileID: 21300310, guid: 770e0bd966a7fa6438527296aa0db38c, type: 3}
    - {fileID: 21300312, guid: 770e0bd966a7fa6438527296aa0db38c, type: 3}
    - {fileID: 21300314, guid: 770e0bd966a7fa6438527296aa0db38c, type: 3}
    - {fileID: 21300316, guid: 770e0bd966a7fa6438527296aa0db38c, type: 3}
    - {fileID: 21300318, guid: 770e0bd966a7fa6438527296aa0db38c, type: 3}
    - {fileID: 21300320, guid: 770e0bd966a7fa6438527296aa0db38c, type: 3}
    - {fileID: 21300322, guid: 770e0bd966a7fa6438527296aa0db38c, type: 3}
    - {fileID: 21300324, guid: 770e0bd966a7fa6438527296aa0db38c, type: 3}
    - {fileID: 21300326, guid: 770e0bd966a7fa6438527296aa0db38c, type: 3}
    - {fileID: 21300328, guid: 770e0bd966a7fa6438527296aa0db38c, type: 3}
    - {fileID: 21300330, guid: 770e0bd966a7fa6438527296aa0db38c, type: 3}
    - {fileID: 21300332, guid: 770e0bd966a7fa6438527296aa0db38c, type: 3}
    - {fileID: 21300334, guid: 770e0bd966a7fa6438527296aa0db38c, type: 3}
    - {fileID: 21300336, guid: 770e0bd966a7fa6438527296aa0db38c, type: 3}
    - {fileID: 21300338, guid: 770e0bd966a7fa6438527296aa0db38c, type: 3}
    - {fileID: 21300340, guid: 770e0bd966a7fa6438527296aa0db38c, type: 3}
    - {fileID: 21300342, guid: 770e0bd966a7fa6438527296aa0db38c, type: 3}
    - {fileID: 21300344, guid: 770e0bd966a7fa6438527296aa0db38c, type: 3}
    - {fileID: 21300346, guid: 770e0bd966a7fa6438527296aa0db38c, type: 3}
    - {fileID: 21300348, guid: 770e0bd966a7fa6438527296aa0db38c, type: 3}
    - {fileID: 21300350, guid: 770e0bd966a7fa6438527296aa0db38c, type: 3}
  m_AnimationClipSettings:
    serializedVersion: 2
    m_AdditiveReferencePoseClip: {fileID: 0}
    m_AdditiveReferencePoseTime: 0
    m_StartTime: 0
    m_StopTime: 2.2666667
    m_OrientationOffsetY: 0
    m_Level: 0
    m_CycleOffset: 0
    m_HasAdditiveReferencePose: 0
    m_LoopTime: 0
    m_LoopBlend: 0
    m_LoopBlendOrientation: 0
    m_LoopBlendPositionY: 0
    m_LoopBlendPositionXZ: 0
    m_KeepOriginalOrientation: 0
    m_KeepOriginalPositionY: 1
    m_KeepOriginalPositionXZ: 0
    m_HeightFromFeet: 0
    m_Mirror: 0
  m_EditorCurves: []
  m_EulerEditorCurves: []
  m_HasGenericRootTransform: 0
  m_HasMotionFloatCurves: 0
  m_GenerateMotionCurves: 0
  m_IsEmpty: 0
  m_Events: []
