%YAML 1.1
%TAG !u! tag:unity3d.com,2011:
--- !u!74 &7400000
AnimationClip:
  m_ObjectHideFlags: 0
  m_PrefabParentObject: {fileID: 0}
  m_PrefabInternal: {fileID: 0}
  m_Name: point_2_A
  serializedVersion: 6
  m_Legacy: 1
  m_Compressed: 0
  m_UseHighQualityCurve: 1
  m_RotationCurves:
  - curve:
      serializedVersion: 2
      m_Curve:
      - serializedVersion: 2
        time: 0
        value: {x: -0, y: -0, z: -0, w: -1}
        inSlope: {x: 0, y: -1.8846456, z: 0, w: 0.02960801}
        outSlope: {x: 0, y: -1.8846456, z: 0, w: 0.02960801}
        tangentMode: -559038745
      - serializedVersion: 2
        time: 0.2
        value: {x: -0, y: -0.36812454, z: -0, w: -0.9297765}
        inSlope: {x: 0, y: -1.7522988, z: 0, w: 0.6937838}
        outSlope: {x: 0, y: -1.7522988, z: 0, w: 0.6937838}
        tangentMode: -559038745
      - serializedVersion: 2
        time: 0.61666673
        value: {x: -0, y: -0.91775465, z: -0, w: -0.39714777}
        inSlope: {x: 0, y: -0.74848366, z: 0, w: 1.729642}
        outSlope: {x: 0, y: -0.74848366, z: 0, w: 1.729642}
        tangentMode: -559038745
      - serializedVersion: 2
        time: 1.0333331
        value: {x: -0, y: -0.92977667, z: -0, w: 0.36812407}
        inSlope: {x: 0, y: 0.6937845, z: 0, w: 1.7523013}
        outSlope: {x: 0, y: 0.6937845, z: 0, w: 1.7523013}
        tangentMode: -559038745
      - serializedVersion: 2
        time: 1.4499993
        value: {x: -0, y: -0.39714906, z: -0, w: 0.9177541}
        inSlope: {x: 0, y: 1.7296429, z: 0, w: 0.74848545}
        outSlope: {x: 0, y: 1.7296429, z: 0, w: 0.74848545}
        tangentMode: -559038745
      - serializedVersion: 2
        time: 1.6499991
        value: {x: -0, y: -0.031412352, z: -0, w: 0.99950653}
        inSlope: {x: 0, y: 1.883728, z: 0, w: 0.059201032}
        outSlope: {x: 0, y: 1.883728, z: 0, w: 0.059201032}
        tangentMode: -559038745
      - serializedVersion: 2
        time: 1.6666666
        value: {x: -0, y: 0.00000008742278, z: -0, w: 1}
        inSlope: {x: 0, y: 1.8846537, z: 0, w: 0.029606557}
        outSlope: {x: 0, y: 1.8846537, z: 0, w: 0.029606557}
        tangentMode: -559038745
      m_PreInfinity: 2
      m_PostInfinity: 2
      m_RotationOrder: 4
    path: 
  m_CompressedRotationCurves: []
  m_EulerCurves: []
  m_PositionCurves: []
  m_ScaleCurves: []
  m_FloatCurves: []
  m_PPtrCurves: []
  m_SampleRate: 60
  m_WrapMode: 2
  m_Bounds:
    m_Center: {x: 0, y: 0, z: 0}
    m_Extent: {x: 0, y: 0, z: 0}
  m_ClipBindingConstant:
    genericBindings: []
    pptrCurveMapping: []
  m_AnimationClipSettings:
    serializedVersion: 2
    m_AdditiveReferencePoseClip: {fileID: 0}
    m_AdditiveReferencePoseTime: 0
    m_StartTime: 0
    m_StopTime: 1
    m_OrientationOffsetY: 0
    m_Level: 0
    m_CycleOffset: 0
    m_HasAdditiveReferencePose: 0
    m_LoopTime: 0
    m_LoopBlend: 0
    m_LoopBlendOrientation: 0
    m_LoopBlendPositionY: 0
    m_LoopBlendPositionXZ: 0
    m_KeepOriginalOrientation: 0
    m_KeepOriginalPositionY: 1
    m_KeepOriginalPositionXZ: 0
    m_HeightFromFeet: 0
    m_Mirror: 0
  m_EditorCurves:
  - curve:
      serializedVersion: 2
      m_Curve:
      - serializedVersion: 2
        time: 0
        value: -0
        inSlope: 0
        outSlope: 0
        tangentMode: 0
      - serializedVersion: 2
        time: 0.2
        value: -0
        inSlope: 0
        outSlope: 0
        tangentMode: 0
      - serializedVersion: 2
        time: 0.61666673
        value: -0
        inSlope: 0
        outSlope: 0
        tangentMode: 0
      - serializedVersion: 2
        time: 1.0333331
        value: -0
        inSlope: 0
        outSlope: 0
        tangentMode: 0
      - serializedVersion: 2
        time: 1.4499993
        value: -0
        inSlope: 0
        outSlope: 0
        tangentMode: 0
      - serializedVersion: 2
        time: 1.6499991
        value: -0
        inSlope: 0
        outSlope: 0
        tangentMode: 0
      - serializedVersion: 2
        time: 1.6666666
        value: -0
        inSlope: 0
        outSlope: 0
        tangentMode: 0
      m_PreInfinity: 2
      m_PostInfinity: 2
      m_RotationOrder: 4
    attribute: m_LocalRotation.x
    path: 
    classID: 4
    script: {fileID: 0}
  - curve:
      serializedVersion: 2
      m_Curve:
      - serializedVersion: 2
        time: 0
        value: -0
        inSlope: -1.8846456
        outSlope: -1.8846456
        tangentMode: 0
      - serializedVersion: 2
        time: 0.2
        value: -0.36812454
        inSlope: -1.7522988
        outSlope: -1.7522988
        tangentMode: 0
      - serializedVersion: 2
        time: 0.61666673
        value: -0.91775465
        inSlope: -0.74848366
        outSlope: -0.74848366
        tangentMode: 0
      - serializedVersion: 2
        time: 1.0333331
        value: -0.92977667
        inSlope: 0.6937845
        outSlope: 0.6937845
        tangentMode: 0
      - serializedVersion: 2
        time: 1.4499993
        value: -0.39714906
        inSlope: 1.7296429
        outSlope: 1.7296429
        tangentMode: 0
      - serializedVersion: 2
        time: 1.6499991
        value: -0.031412352
        inSlope: 1.883728
        outSlope: 1.883728
        tangentMode: 0
      - serializedVersion: 2
        time: 1.6666666
        value: 0.00000008742278
        inSlope: 1.8846537
        outSlope: 1.8846537
        tangentMode: 0
      m_PreInfinity: 2
      m_PostInfinity: 2
      m_RotationOrder: 4
    attribute: m_LocalRotation.y
    path: 
    classID: 4
    script: {fileID: 0}
  - curve:
      serializedVersion: 2
      m_Curve:
      - serializedVersion: 2
        time: 0
        value: -0
        inSlope: 0
        outSlope: 0
        tangentMode: 0
      - serializedVersion: 2
        time: 0.2
        value: -0
        inSlope: 0
        outSlope: 0
        tangentMode: 0
      - serializedVersion: 2
        time: 0.61666673
        value: -0
        inSlope: 0
        outSlope: 0
        tangentMode: 0
      - serializedVersion: 2
        time: 1.0333331
        value: -0
        inSlope: 0
        outSlope: 0
        tangentMode: 0
      - serializedVersion: 2
        time: 1.4499993
        value: -0
        inSlope: 0
        outSlope: 0
        tangentMode: 0
      - serializedVersion: 2
        time: 1.6499991
        value: -0
        inSlope: 0
        outSlope: 0
        tangentMode: 0
      - serializedVersion: 2
        time: 1.6666666
        value: -0
        inSlope: 0
        outSlope: 0
        tangentMode: 0
      m_PreInfinity: 2
      m_PostInfinity: 2
      m_RotationOrder: 4
    attribute: m_LocalRotation.z
    path: 
    classID: 4
    script: {fileID: 0}
  - curve:
      serializedVersion: 2
      m_Curve:
      - serializedVersion: 2
        time: 0
        value: -1
        inSlope: 0.02960801
        outSlope: 0.02960801
        tangentMode: 0
      - serializedVersion: 2
        time: 0.2
        value: -0.9297765
        inSlope: 0.6937838
        outSlope: 0.6937838
        tangentMode: 0
      - serializedVersion: 2
        time: 0.61666673
        value: -0.39714777
        inSlope: 1.729642
        outSlope: 1.729642
        tangentMode: 0
      - serializedVersion: 2
        time: 1.0333331
        value: 0.36812407
        inSlope: 1.7523013
        outSlope: 1.7523013
        tangentMode: 0
      - serializedVersion: 2
        time: 1.4499993
        value: 0.9177541
        inSlope: 0.74848545
        outSlope: 0.74848545
        tangentMode: 0
      - serializedVersion: 2
        time: 1.6499991
        value: 0.99950653
        inSlope: 0.059201032
        outSlope: 0.059201032
        tangentMode: 0
      - serializedVersion: 2
        time: 1.6666666
        value: 1
        inSlope: 0.029606557
        outSlope: 0.029606557
        tangentMode: 0
      m_PreInfinity: 2
      m_PostInfinity: 2
      m_RotationOrder: 4
    attribute: m_LocalRotation.w
    path: 
    classID: 4
    script: {fileID: 0}
  m_EulerEditorCurves:
  - curve:
      serializedVersion: 2
      m_Curve:
      - serializedVersion: 2
        time: 0
        value: 0
        inSlope: 1e-45
        outSlope: 3.5735355e-35
        tangentMode: 34
      m_PreInfinity: 2
      m_PostInfinity: 2
      m_RotationOrder: 4
    attribute: localEulerAnglesBaked.x
    path: 
    classID: 4
    script: {fileID: 0}
  - curve:
      serializedVersion: 2
      m_Curve:
      - serializedVersion: 2
        time: 0
        value: 0
        inSlope: 216
        outSlope: 216
        tangentMode: 34
      - serializedVersion: 2
        time: 1.6666666
        value: 360
        inSlope: 216
        outSlope: 216
        tangentMode: 34
      m_PreInfinity: 2
      m_PostInfinity: 2
      m_RotationOrder: 4
    attribute: localEulerAnglesBaked.y
    path: 
    classID: 4
    script: {fileID: 0}
  - curve:
      serializedVersion: 2
      m_Curve:
      - serializedVersion: 2
        time: 0
        value: 0
        inSlope: 2.282469e-39
        outSlope: 2.2817641e-35
        tangentMode: 34
      m_PreInfinity: 2
      m_PostInfinity: 2
      m_RotationOrder: 4
    attribute: localEulerAnglesBaked.z
    path: 
    classID: 4
    script: {fileID: 0}
  m_HasGenericRootTransform: 0
  m_HasMotionFloatCurves: 0
  m_GenerateMotionCurves: 0
  m_IsEmpty: 0
  m_Events: []
